%YAML 1.1
%TAG !u! tag:unity3d.com,2011:
--- !u!1045 &1
EditorBuildSettings:
  m_ObjectHideFlags: 0
  serializedVersion: 2
  m_Scenes:
  - enabled: 1
    path: Assets/Menu.unity
    guid: 84a1ee9ff6630ec4d927af837936f208
  - enabled: 1
    path: Assets/Game.unity
    guid: a42590fa7e7cb5042a09486f412f2110
  m_configObjects: {}
